22

C -2.30922836 0.87513294 1.40070188
C -1.34647798 1.04372781 0.22770922
H 0.90243836 -3.07733520 0.09151742
H 3.22650899 0.40163701 1.13554548
C -0.17190367 -1.20554974 0.15489710
H -2.64428185 -0.16883700 1.46339045
H -1.81674087 1.14490975 2.34423019
H -3.18723504 1.51754882 1.25585983
C -0.10288235 0.17870442 0.38179346
H 0.41372662 -0.39836006 -2.38649396
H -1.45805409 0.76149014 -1.70946599
C 1.12901716 0.74294231 0.73621033
C 2.19814908 -1.42953269 0.62521934
H -1.02141542 2.10008874 0.18842827
C 0.96931762 -2.00343703 0.27282209
C 2.27422327 -0.05408058 0.86072931
H 3.08883383 -2.05214468 0.71490841
O -2.07375005 0.71921683 -0.95815365
H 1.19634798 1.81846396 0.91349196
O 0.28111450 0.49246774 -2.73982591
H 0.92633066 1.02170875 -2.25276869
H -1.12618673 -1.64729601 -0.13254269
