21

O 0.28188938 1.40811157 -0.03725310
C 0.27521988 0.17603922 -0.02717668
N 1.39198325 -0.62523432 -0.19333525
N -0.81940489 -0.64518145 0.15168794
C 1.06372102 -2.01164591 0.11186556
C -0.45472139 -2.03040119 -0.12168638
H 1.31148043 -2.25043764 1.16266848
H -0.69593499 -2.29866301 -1.16656906
H 1.60664528 -2.70598050 -0.54191697
H -0.98374051 -2.72060124 0.54753693
C 2.72129427 -0.10738364 0.05513331
C -2.17595142 -0.18805767 -0.08571494
H 2.72016972 0.96591578 -0.15921903
H -2.26523374 0.86599657 0.18807085
H 3.02610969 -0.26270857 1.10553927
H -2.46009841 -0.30620394 -1.14573173
H 3.44627366 -0.60776752 -0.60038235
H -2.86799655 -0.77475423 0.53239391
O -1.84967113 3.21493200 0.07451712
H -1.52945986 4.12240913 0.10035194
H -1.04636866 2.65879431 0.02989581
