20
 
C 3.02111148 -0.05618665 0.00000079
C 3.11517750 -1.45358374 0.00000012
C 1.95538282 -2.23583265 0.00000007
C 0.70101419 -1.62653023 -0.00000031
C 0.59856059 -0.22048597 0.00000183
C 1.77304116 0.56121941 -0.00000011
H 3.92390960 0.55435696 0.00000056
H 4.09461887 -1.93343252 -0.00000050
H 2.02802721 -3.32320925 -0.00000170
H -0.18820708 -2.25078964 0.00000022
H 1.70503056 1.64677364 0.00000187
C -0.70269111 0.48262969 -0.00000166
O -0.84245789 1.69140137 -0.00000104
C -2.01348697 -0.37072315 0.00000150
F -2.07076468 -1.17047982 -1.09641957
F -2.07076351 -1.17048123 1.09642059
F -3.10216773 0.40468344 -0.00000067
O 1.05812349 3.86346330 -0.00000122
H 0.27199699 3.29372050 -0.00000152
H 0.72491332 4.76713731 0.00000075
