24

C -2.32675601 1.31900453 -0.16609884
C -3.48364109 0.53619937 -0.16266991
C -2.17953844 -1.52978742 -0.02149901
H -4.33015167 -1.45310822 -0.09364148
C -1.04424955 -0.72967505 -0.02704848
C -1.08335534 0.67665428 -0.09791610
H -4.46048847 1.01675383 -0.21734537
H -2.38987044 2.40566252 -0.22215845
C -3.41052839 -0.86766362 -0.09177026
O 0.25713037 -1.19289306 0.03026054
C 3.09539177 1.15408879 -0.02645417
H -2.10975221 -2.61513616 0.03089434
C 0.30478474 1.10899566 -0.08424273
C 2.45848062 -0.09090096 0.02344555
H 4.18468716 1.19366061 -0.00669712
C 0.96523697 2.34437657 -0.13064415
H 0.40274518 3.27617034 -0.18808569
H 3.00639280 -1.02970078 0.08632710
C 2.36145787 2.35350508 -0.10164582
C 1.06985233 -0.06997417 -0.00739313
H 2.89500591 3.30342709 -0.13828324
O 2.09415273 -3.42689569 0.56361910
H 1.32285946 -2.85879318 0.41830031
H 2.02098177 -3.71275861 1.48178408
