    7

 C         -1.3031208896        0.4601204728       -0.0000312716
 H         -0.5783235025        1.2869767505       -0.0002264730
 H         -2.3721802821        0.7201787113        0.0000633156
 O         -0.9421065750       -0.6895782581        0.0000640000
 O          1.7884781423        0.1832968535       -0.0000922616
 H          1.0594422229       -0.4457459740       -0.0000704348
 H          2.5830248840       -0.3487605559       -0.0008048746
