   16

 C         -0.4589370200       -1.2311638969        0.2126770621
 O          0.2631963125       -0.2088794622        0.9128916111
 C         -0.3294220528        1.0651746750        0.6510107221
 C         -1.1119292036        0.8846954806       -0.6383766129
 C         -1.6391122414       -0.5380437134       -0.4628936353
 H          0.2143100031       -1.6808005529       -0.5217563039
 H         -0.7635781859       -1.9969511296        0.9270706954
 H         -0.9908728802        1.3356586151        1.4809355757
 H          0.4721236909        1.8000553283        0.5811056066
 H         -1.8990529219        1.6277738437       -0.7626711890
 H         -0.4353955563        0.9398119107       -1.4935908590
 H         -2.5099982962       -0.5368286430        0.1961390297
 H         -1.9182216267       -1.0183599499       -1.3998407129
 O          2.6349632829        0.0380713267       -0.5737381212
 H          3.4626374773       -0.1144929811       -0.1196241292
 H          1.9480582184       -0.1013018510        0.0922542608
