15

C       -0.120416734   1.553489095  -0.000428739
C       -1.467179702   1.205620211  -0.000704256
C       -1.806899122  -0.141720652  -0.000104364
C       -0.818789903  -1.127810217   0.000844017
C        0.528580927  -0.784148670   0.001436396
C        0.865293854   0.564353165   0.000615325
H        1.313144445  -1.543432906   0.002610430
H       -2.237337546   1.975240929  -0.001216175
F       -3.115584712  -0.507355762  -0.000251325
F       -1.187036673  -2.430528880   0.001301647
F        0.238652441   2.857183821  -0.001005152
F        2.170922184   0.934338666   0.000903723
O        3.651020352  -1.834102514  -0.006234091
H        4.479049654  -2.343912251   0.001633014
H        3.940045920  -0.904760970  -0.003198039