20

C       -2.144457865   2.305985847  -0.004723221
C       -3.312912184   1.540804613  -0.002087797
C       -3.244570467   0.142039993   0.002796739
C       -2.010032063  -0.493078239   0.003042150
C       -0.822380550   0.266410702  -0.001150413
C       -0.905206240   1.672709865  -0.003903737
C        0.456484102  -0.464584928  -0.005131408
O        0.569509661  -1.685382303  -0.011119397
C        1.792331146   0.361611473  -0.000817539
F        1.875231571   1.162485643   1.102243840
F        1.883540663   1.163504674  -1.102262406
F        2.869100599  -0.449210130   0.002694472
H        0.337516693  -4.889982652   0.052024653
O       -0.523597483  -4.444999732  -0.012870201
H       -2.184490860   3.395752755  -0.008715712
H       -4.284760815   2.035489107  -0.004752983
H       -4.162655233  -0.445347451   0.005633592
H       -1.941004877  -1.580670830   0.006134486
H       -0.005623358   2.283187988  -0.007602795
H       -0.281323625  -3.496184766  -0.008880603
