26

C       -2.239659533   0.330928503   0.891977514
C       -1.938348242  -1.131584470   0.539154786
C       -1.185165381  -1.343708089  -0.786414499
C        0.286933582  -0.991398767  -0.669949188
C        0.844803893   0.092624221  -1.558416187
C        0.807450166   1.479269833  -0.866263184
C       -0.559402370   1.940605648  -0.341726456
C       -1.038080105   1.290854744   0.985099929
O        0.989340512  -1.567322076   0.165187735
H        2.491144570  -0.700580016   0.814299916
O        3.166807715  -0.054108095   1.132280342
H       -2.758085565   0.325115226   1.864013365
H       -2.968442523   0.742189652   0.173085456
H       -2.889001713  -1.683057297   0.491839002
H       -1.342596990  -1.597533175   1.339487287
H       -1.657319633  -0.784017581  -1.605303230
H       -1.224292488  -2.412490693  -1.052719068
H        0.268106544   0.132389924  -2.494735546
H        1.890607303  -0.150198075  -1.792962753
H        1.176395561   2.208153436  -1.602746087
H        1.533811598   1.476673235  -0.040080709
H       -1.329156439   1.806959259  -1.120321052
H       -0.489731098   3.027678694  -0.185842972
H       -1.325796977   2.103222979   1.667466486
H       -0.191460738   0.786426393   1.478812644
H        3.655919835  -0.522970154   1.827408310
