16

C        0.637606081   1.141210768   0.532620340
C        0.964856615   0.777482598  -0.923763175
C        0.965623672  -0.775433141  -0.925182462
C        0.637132125  -1.142380233   0.530204974
O       -0.067394671  -0.000998714   1.066781050
H       -1.713647265  -0.000206118   0.256027018
O       -2.472115914   0.000242490  -0.376910556
H       -3.263889067  -0.002741828   0.184541965
H       -0.015552624   2.014429330   0.644874524
H        1.557594211   1.303002145   1.122424076
H        1.927159623   1.200163764  -1.238267146
H        0.189323980   1.159549924  -1.597569799
H        1.928716563  -1.196569751  -1.239325642
H        0.191346237  -1.157059197  -1.600689532
H        1.556604988  -1.306321480   1.120207494
H       -0.016751482  -2.015385352   0.639875233
