15
symmetry c1
C        1.788963000     -0.335980000      0.009648000
C        0.692992000     -1.184022000     -0.014425000
C        1.616396000      1.033553000      0.019558000
H        2.471252000      1.694627000      0.038065000
C       -0.589904000     -0.675338000     -0.030075000
C        0.334296000      1.545186000      0.004792000
H       -1.455245000     -1.327886000     -0.047475000
C       -0.757479000      0.694273000     -0.019174000
F        0.886517000     -2.500560000     -0.022423000
F        3.017053000     -0.849041000      0.023907000
F       -1.989071000      1.215930000     -0.033557000
F        0.143758000      2.863018000      0.014141000
O       -3.735526000     -1.404573000     -0.030632000
H       -3.827763000     -0.450227000     -0.052351000
H       -4.339937000     -1.710089000      0.646250000
