13
symmetry c1
C       -0.731630000     -0.090569000     -0.009666000
O        0.067291000     -0.998644000     -0.057135000
C       -0.305979000      1.353398000     -0.001546000
C       -2.212648000     -0.361267000      0.036414000
H        0.762436000      1.443462000      0.184188000
H       -2.411712000     -1.415301000     -0.141173000
H       -0.875554000      1.917531000      0.739130000
H       -0.535978000      1.786674000     -0.978961000
H       -2.737651000      0.253804000     -0.697024000
H       -2.595134000     -0.079953000      1.021017000
O        2.762586000     -0.031283000     -0.032555000
H        3.335496000     -0.567637000      0.514552000
H        1.920625000     -0.508540000     -0.075423000
