14
symmetry c1
C       -0.304627000     -0.976276000      0.073482000
C       -0.259046000      0.542563000      0.030042000
C       -1.775489000      0.666548000      0.009595000
C       -1.845878000     -0.882029000     -0.077035000
H        0.050006000     -1.370177000      1.027180000
H        0.258667000     -1.466901000     -0.719869000
H       -2.166751000      1.094019000      0.934375000
H       -2.173140000      1.234822000     -0.831458000
H       -2.208349000     -1.243097000     -1.037142000
H       -2.415612000     -1.359725000      0.716441000
O        0.631401000      1.343556000     -0.011569000
O        2.841774000     -0.485926000     -0.009172000
H        3.724670000     -0.138760000     -0.132185000
H        2.255344000      0.283938000     -0.007915000
