7
symmetry c1
O        0.924877000     -0.671425000     -0.010204000
C        1.302021000      0.467800000      0.020684000
H        0.589440000      1.309832000      0.045982000
H        2.378547000      0.713673000      0.025207000
O       -1.832156000      0.153213000     -0.070295000
H       -2.463016000     -0.259638000      0.518717000
H       -1.058870000     -0.424968000     -0.070016000
