12
symmetry c1
N        0.290637000      0.410712000      0.015251000
C       -0.102882000     -0.836180000      0.017620000
C       -0.853409000      1.164288000     -0.001821000
C       -1.947758000      0.354393000     -0.008468000
N       -1.451800000     -0.923937000      0.004099000
H        0.548549000     -1.695672000      0.024360000
H       -1.989717000     -1.770602000     -0.000333000
H       -3.002718000      0.563486000     -0.021232000
H       -0.821817000      2.240891000     -0.009273000
O        3.134789000     -0.048205000     -0.100265000
H        3.506968000      0.231131000      0.735784000
H        2.232858000      0.313971000     -0.106618000
