14
symmetry c1
C       -2.145784000      0.295845000      0.002314000
C       -1.202464000      1.309538000      0.004074000
C        0.139121000      0.963712000      0.004123000
N        0.564336000     -0.296552000      0.003280000
C       -0.347183000     -1.263998000     -0.000237000
C       -1.710734000     -1.019127000     -0.000166000
H       -3.203649000      0.526521000      0.001628000
H       -1.495504000      2.350674000      0.003930000
H        0.913334000      1.723543000      0.001849000
H        0.032302000     -2.279903000     -0.004328000
H       -2.411180000     -1.843305000     -0.003271000
O        3.444861000      0.028665000     -0.098534000
H        2.510836000     -0.240172000     -0.094428000
H        3.746881000     -0.106632000      0.799285000
