16
symmetry c1
C        0.623333000      0.420568000     -1.244174000
C        1.454468000     -0.749482000     -0.729260000
C        0.731417000     -1.287145000      0.499957000
C        0.421145000     -0.081617000      1.380370000
H       -0.220022000      0.070366000     -1.839085000
H        2.452222000     -0.400313000     -0.450902000
H        1.332376000     -2.019598000      1.041702000
H        1.570620000     -1.511432000     -1.501626000
H       -0.202187000     -1.767560000      0.199802000
H        1.287747000      0.218266000      1.969722000
H       -0.416166000     -0.262927000      2.051913000
H        1.206998000      1.123419000     -1.835765000
S       -0.017092000      1.278595000      0.239430000
O       -2.577398000     -0.680159000     -0.317640000
H       -2.021281000      0.089227000     -0.123559000
H       -3.479826000     -0.369640000     -0.243316000

