12
TFE_ at b2plyp/pvtz level
 O                 -2.77454900   -0.58616200   -0.12421900
 H                 -2.23069500   -1.31589800    0.18957100
 H                 -3.62461100   -0.68384400    0.31305100
 O                 -0.90613000    1.49398400    0.20533100
 C                  0.12051800    1.03148300   -0.62402100
 C                  0.88071500   -0.13009200   -0.00886700
 F                  1.86303200   -0.54148600   -0.83245600
 F                  1.43620700    0.17762800    1.16847700
 F                  0.07275100   -1.20139800    0.20619900
 H                 -1.65532700    0.87960700    0.13734800
 H                 -0.23593300    0.69880600   -1.60160100
 H                  0.83668600    1.83771400   -0.76992300
 





