13
acetone xyz file optimized at b2plyp/aug-cc-pvtz level
 C                  2.20943200   -0.37599700    0.01473400
 H                  2.71255300    0.17216400   -0.78184000
 H                  2.38818600   -1.44098700   -0.09157100
 H                  2.63219200   -0.02582900    0.95756500
 C                  0.73017700   -0.08926500   -0.00526600
 O                 -0.08509800   -0.99653700   -0.02274600
 C                  0.31788800    1.35958300   -0.00433200
 H                  0.82285800    1.89162600    0.80211300
 H                  0.64224700    1.82073000   -0.93876900
 H                 -0.75811700    1.45881200    0.09447600
 O                 -2.74420200   -0.01110500    0.00768400
 H                 -3.43948100   -0.67061700    0.05636700
 H                 -1.91101800   -0.51068700   -0.00866200

