16
THF geometry at b2plypaug-cc-pvtz level
 O                 -2.46076000   -0.00000100    0.46272400
 H                 -1.76707400   -0.00000700   -0.21904000
 H                 -3.29223000   -0.00000200   -0.01656900
 C                  0.96334700   -0.77438200    0.86589700
 C                  0.96335000    0.77439200    0.86588800
 C                  0.58733800    1.13776300   -0.57531300
 O                 -0.12109000   -0.00000700   -1.08252400
 C                  0.58735100   -1.13776600   -0.57530500
 H                  1.92883000   -1.19168300    1.14266600
 H                  0.21691000   -1.15307900    1.55869200
 H                  0.21692600    1.15310100    1.55869100
 H                  1.92884000    1.19169100    1.14263900
 H                 -0.07043300    1.99804300   -0.65903100
 H                  1.47754700    1.30555200   -1.18882200
 H                 -0.07040700   -1.99805600   -0.65902400
 H                  1.47756700   -1.30554400   -1.18880600





