33
DFT2-D3.log	Energy: -435566.8601568
C         -2.79449       -1.25832        0.07716
C         -2.36995       -0.27816        1.17342
C         -1.06608        0.43451        0.79801
C          0.05774       -0.59811        0.57854
C         -0.34153       -1.59955       -0.53352
C         -1.68283       -2.26282       -0.23829
C          1.45813       -0.05902        0.35147
C          1.73091        1.21290       -0.15752
C          3.04447        1.62647       -0.36936
C          4.10741        0.78087       -0.08232
C          3.85015       -0.48862        0.42634
C          2.54146       -0.89815        0.63903
O         -1.28079        1.27647       -0.35030
O         -0.44805       -0.93321       -1.80860
H          0.91580        1.88328       -0.38303
H          3.23236        2.61828       -0.75983
H          5.12585        1.10653       -0.24744
H          4.66846       -1.15608        0.66311
H          2.35413       -1.88586        1.04415
H          0.09526       -1.18617        1.50099
H         -3.14482        0.47009        1.33812
H         -2.22078       -0.81118        2.11788
H         -1.95468       -2.89113       -1.08778
H         -1.53646       -2.92610        0.61938
H         -3.69789       -1.79021        0.37858
H         -3.05720       -0.70101       -0.82369
H         -0.77082        1.11459        1.59886
H          0.43092       -2.37109       -0.60766
H         -1.21348        0.71546       -1.13736
H          0.42929       -0.62496       -2.06068
O         -3.80296        2.54075       -0.07369
H         -2.90952        2.19749       -0.24253
H         -3.70433        3.49413       -0.02814
