17
DFT2-D3.log	Energy: -228543.3715576
C         -2.25686        0.05007       -0.58631
C         -1.61638        1.22130       -0.19568
C         -0.37773        1.17607        0.43001
C          0.24059       -0.05151        0.67982
C         -0.40044       -1.22712        0.28167
C         -1.63893       -1.17217       -0.34351
H         -3.22157        0.08935       -1.07273
H         -2.08244        2.18065       -0.37869
H          0.11754        2.09412        0.72192
H          0.07710       -2.18330        0.45798
H         -2.12260       -2.09279       -0.64269
N          1.52818       -0.09881        1.24406
H          1.76160        0.69399        1.82274
H          1.74753       -0.96381        1.71469
O          3.04763        0.09222       -1.31881
H          2.63292        0.02071       -0.44487
H          2.31025        0.13516       -1.93224
