7
DFT2-D3.log	Energy: -119874.0304392
C         -1.29010        0.47547        0.01987
O         -0.93792       -0.67596       -0.00822
H         -2.36026        0.74865        0.01148
H         -0.55928        1.30068        0.05486
O          1.82418        0.15161       -0.06983
H          2.49345       -0.24565        0.49161
H          1.07662       -0.46170       -0.05280
