17
DFT2-D3.log	Energy: -298922.7344377
C         -1.52932       -1.40254        0.01302
C         -2.69130       -0.65534       -0.00886
C         -2.64858        0.74110       -0.02692
C         -1.42360        1.37501       -0.01933
C         -0.23146        0.63093        0.00548
C         -0.27471       -0.78132        0.01849
H         -1.55488       -2.48377        0.02371
H         -3.64685       -1.16459       -0.01401
H         -3.56150        1.32005       -0.04603
H         -1.35995        2.45500       -0.03053
O          0.79488       -1.58335        0.04157
H          1.67520       -1.14366       -0.01657
C          1.01498        1.31328        0.02771
N          2.04190        1.83991        0.05173
O          3.38739       -0.71679       -0.13919
H          3.99579       -1.03978        0.53342
H          3.40467        0.25173       -0.08881
