14
DFT2-D3.log	Energy: -203855.8506597
C          0.25164        0.99733       -0.01220
C         -1.05536        1.46923       -0.02085
C         -2.09365        0.54686       -0.00462
C         -1.78410       -0.80711        0.01862
C         -0.44595       -1.18186        0.02517
N          0.55557       -0.30160        0.01128
H         -3.12418        0.87656       -0.01119
H          1.09312        1.68002       -0.02747
H         -1.24894        2.53272       -0.04108
H         -2.55965       -1.56033        0.03029
H         -0.16408       -2.22811        0.04067
O          3.42901       -0.49298       -0.11560
H          2.45606       -0.55251       -0.07694
H          3.71847       -0.60761        0.79224
