26

C -2.453849 0.08522 0.613401
C -1.367583 1.102473 0.994439
C 0.470095 -1.036082 -0.151848
C -0.762205 1.903135 -0.17977
C 0.75682 0.031012 -1.188379
C 0.64002 1.459124 -0.612773
H -3.346408 0.62954 0.29175
H -0.56578 0.60151 1.541489
H -1.440845 1.877483 -1.037817
H 0.101264 -0.079692 -2.052554
H -2.741525 -0.467416 1.512585
H -1.811604 1.794893 1.712052
H -0.690764 2.954168 0.106164
H 1.7868 -0.115132 -1.514657
H 1.011601 2.146039 -1.375401
H 1.328432 1.538881 0.230207
C -2.091192 -0.915532 -0.4887
H -1.961865 -0.390892 -1.436907
H -2.937946 -1.58804 -0.639891
C -0.852537 -1.770269 -0.196842
H -0.959151 -2.320639 0.738628
H -0.742094 -2.514181 -0.995031
O 1.302797 -1.317653 0.693287
O 3.647316 0.226518 0.394957
H 4.413707 -0.10919 0.866472
H 2.917869 -0.382738 0.609795

